%YAML 1.1
%TAG !u! tag:unity3d.com,2011:
--- !u!74 &7400000
AnimationClip:
  m_ObjectHideFlags: 0
  m_CorrespondingSourceObject: {fileID: 0}
  m_PrefabInstance: {fileID: 0}
  m_PrefabAsset: {fileID: 0}
  m_Name: LookUp
  serializedVersion: 6
  m_Legacy: 0
  m_Compressed: 0
  m_UseHighQualityCurve: 1
  m_RotationCurves: []
  m_CompressedRotationCurves: []
  m_EulerCurves: []
  m_PositionCurves: []
  m_ScaleCurves: []
  m_FloatCurves: []
  m_PPtrCurves:
  - curve:
    - time: 0
      value: {fileID: 371770028303835258, guid: 701a64fedf4c8c146a813bb835545f5d,
        type: 3}
    - time: 0.083333336
      value: {fileID: -2890347765599943737, guid: 701a64fedf4c8c146a813bb835545f5d,
        type: 3}
    - time: 0.16666667
      value: {fileID: -1647002191140767864, guid: 701a64fedf4c8c146a813bb835545f5d,
        type: 3}
    - time: 0.25
      value: {fileID: -5355441839388053548, guid: 701a64fedf4c8c146a813bb835545f5d,
        type: 3}
    - time: 0.33333334
      value: {fileID: -8836697012865689943, guid: 701a64fedf4c8c146a813bb835545f5d,
        type: 3}
    - time: 0.41666666
      value: {fileID: 1367385652464558166, guid: 701a64fedf4c8c146a813bb835545f5d,
        type: 3}
    - time: 0.5
      value: {fileID: -453115566505970332, guid: 701a64fedf4c8c146a813bb835545f5d,
        type: 3}
    - time: 0.5833333
      value: {fileID: -1245777363572553951, guid: 701a64fedf4c8c146a813bb835545f5d,
        type: 3}
    - time: 0.6666667
      value: {fileID: -2752593092480351204, guid: 701a64fedf4c8c146a813bb835545f5d,
        type: 3}
    - time: 0.75
      value: {fileID: -625356339851083396, guid: 701a64fedf4c8c146a813bb835545f5d,
        type: 3}
    - time: 0.8333333
      value: {fileID: 775387156169236004, guid: 701a64fedf4c8c146a813bb835545f5d,
        type: 3}
    - time: 0.9166667
      value: {fileID: 1320002936175618831, guid: 701a64fedf4c8c146a813bb835545f5d,
        type: 3}
    - time: 1
      value: {fileID: -2436334255158986032, guid: 701a64fedf4c8c146a813bb835545f5d,
        type: 3}
    - time: 1.0833334
      value: {fileID: 8152840121169284116, guid: 701a64fedf4c8c146a813bb835545f5d,
        type: 3}
    - time: 1.1666666
      value: {fileID: 9036832362563248495, guid: 701a64fedf4c8c146a813bb835545f5d,
        type: 3}
    - time: 1.25
      value: {fileID: -2402972797652147045, guid: 701a64fedf4c8c146a813bb835545f5d,
        type: 3}
    - time: 1.3333334
      value: {fileID: -3877935415368287118, guid: 701a64fedf4c8c146a813bb835545f5d,
        type: 3}
    - time: 1.4166666
      value: {fileID: 5267262029791307153, guid: 701a64fedf4c8c146a813bb835545f5d,
        type: 3}
    - time: 1.5
      value: {fileID: 6255432424223785147, guid: 701a64fedf4c8c146a813bb835545f5d,
        type: 3}
    - time: 1.5833334
      value: {fileID: -3495303011756134686, guid: 701a64fedf4c8c146a813bb835545f5d,
        type: 3}
    - time: 1.6666666
      value: {fileID: 6413959586835946185, guid: 701a64fedf4c8c146a813bb835545f5d,
        type: 3}
    - time: 1.75
      value: {fileID: 6344617282962182974, guid: 701a64fedf4c8c146a813bb835545f5d,
        type: 3}
    - time: 1.8333334
      value: {fileID: 7280836111670739208, guid: 701a64fedf4c8c146a813bb835545f5d,
        type: 3}
    - time: 1.9166666
      value: {fileID: 8853755067739867087, guid: 701a64fedf4c8c146a813bb835545f5d,
        type: 3}
    - time: 2
      value: {fileID: -8712927495414851050, guid: 701a64fedf4c8c146a813bb835545f5d,
        type: 3}
    - time: 2.0833333
      value: {fileID: 3002838779231372501, guid: 701a64fedf4c8c146a813bb835545f5d,
        type: 3}
    - time: 2.1666667
      value: {fileID: 6951273122537960769, guid: 701a64fedf4c8c146a813bb835545f5d,
        type: 3}
    - time: 2.25
      value: {fileID: 7314858702707941015, guid: 701a64fedf4c8c146a813bb835545f5d,
        type: 3}
    - time: 2.3333333
      value: {fileID: -581953000134472950, guid: 701a64fedf4c8c146a813bb835545f5d,
        type: 3}
    - time: 2.4166667
      value: {fileID: 4463743660205698430, guid: 701a64fedf4c8c146a813bb835545f5d,
        type: 3}
    - time: 2.5
      value: {fileID: -5026162614823708434, guid: 701a64fedf4c8c146a813bb835545f5d,
        type: 3}
    - time: 2.5833333
      value: {fileID: 7211250393089936162, guid: 701a64fedf4c8c146a813bb835545f5d,
        type: 3}
    - time: 2.6666667
      value: {fileID: 2196582505106899357, guid: 701a64fedf4c8c146a813bb835545f5d,
        type: 3}
    - time: 2.75
      value: {fileID: 5146825186311955845, guid: 701a64fedf4c8c146a813bb835545f5d,
        type: 3}
    - time: 2.8333333
      value: {fileID: -8014847870481163030, guid: 701a64fedf4c8c146a813bb835545f5d,
        type: 3}
    - time: 2.9166667
      value: {fileID: 5133968204822818213, guid: 701a64fedf4c8c146a813bb835545f5d,
        type: 3}
    - time: 3
      value: {fileID: -4302015522822413232, guid: 701a64fedf4c8c146a813bb835545f5d,
        type: 3}
    - time: 3.0833333
      value: {fileID: -8938288144476853292, guid: 701a64fedf4c8c146a813bb835545f5d,
        type: 3}
    - time: 3.1666667
      value: {fileID: -8824636863799581502, guid: 701a64fedf4c8c146a813bb835545f5d,
        type: 3}
    - time: 3.25
      value: {fileID: -7779427700033496155, guid: 701a64fedf4c8c146a813bb835545f5d,
        type: 3}
    - time: 3.3333333
      value: {fileID: 4217503324867071234, guid: 701a64fedf4c8c146a813bb835545f5d,
        type: 3}
    - time: 3.4166667
      value: {fileID: 3519666836821608514, guid: 701a64fedf4c8c146a813bb835545f5d,
        type: 3}
    - time: 3.5
      value: {fileID: -8870313251716239253, guid: 701a64fedf4c8c146a813bb835545f5d,
        type: 3}
    - time: 3.5833333
      value: {fileID: 5736239151936116451, guid: 701a64fedf4c8c146a813bb835545f5d,
        type: 3}
    - time: 3.6666667
      value: {fileID: 2033125049655388251, guid: 701a64fedf4c8c146a813bb835545f5d,
        type: 3}
    - time: 3.75
      value: {fileID: 1441660932312829258, guid: 701a64fedf4c8c146a813bb835545f5d,
        type: 3}
    - time: 3.8333333
      value: {fileID: -758807477636124456, guid: 701a64fedf4c8c146a813bb835545f5d,
        type: 3}
    - time: 3.9166667
      value: {fileID: -5582624316916534274, guid: 701a64fedf4c8c146a813bb835545f5d,
        type: 3}
    - time: 4
      value: {fileID: -5714499796589647516, guid: 701a64fedf4c8c146a813bb835545f5d,
        type: 3}
    - time: 4.0833335
      value: {fileID: -150424870180096568, guid: 701a64fedf4c8c146a813bb835545f5d,
        type: 3}
    - time: 4.1666665
      value: {fileID: 8401221093333267842, guid: 701a64fedf4c8c146a813bb835545f5d,
        type: 3}
    - time: 4.25
      value: {fileID: 5810231308908570376, guid: 701a64fedf4c8c146a813bb835545f5d,
        type: 3}
    - time: 4.3333335
      value: {fileID: -2762071783020211222, guid: 701a64fedf4c8c146a813bb835545f5d,
        type: 3}
    - time: 4.4166665
      value: {fileID: -3083131687873872864, guid: 701a64fedf4c8c146a813bb835545f5d,
        type: 3}
    - time: 4.5
      value: {fileID: 6395265114279166437, guid: 701a64fedf4c8c146a813bb835545f5d,
        type: 3}
    - time: 4.5833335
      value: {fileID: 1815149836726880720, guid: 701a64fedf4c8c146a813bb835545f5d,
        type: 3}
    attribute: m_Sprite
    path: 
    classID: 212
    script: {fileID: 0}
  m_SampleRate: 12
  m_WrapMode: 0
  m_Bounds:
    m_Center: {x: 0, y: 0, z: 0}
    m_Extent: {x: 0, y: 0, z: 0}
  m_ClipBindingConstant:
    genericBindings:
    - serializedVersion: 2
      path: 0
      attribute: 0
      script: {fileID: 0}
      typeID: 212
      customType: 23
      isPPtrCurve: 1
    pptrCurveMapping:
    - {fileID: 371770028303835258, guid: 701a64fedf4c8c146a813bb835545f5d, type: 3}
    - {fileID: -2890347765599943737, guid: 701a64fedf4c8c146a813bb835545f5d, type: 3}
    - {fileID: -1647002191140767864, guid: 701a64fedf4c8c146a813bb835545f5d, type: 3}
    - {fileID: -5355441839388053548, guid: 701a64fedf4c8c146a813bb835545f5d, type: 3}
    - {fileID: -8836697012865689943, guid: 701a64fedf4c8c146a813bb835545f5d, type: 3}
    - {fileID: 1367385652464558166, guid: 701a64fedf4c8c146a813bb835545f5d, type: 3}
    - {fileID: -453115566505970332, guid: 701a64fedf4c8c146a813bb835545f5d, type: 3}
    - {fileID: -1245777363572553951, guid: 701a64fedf4c8c146a813bb835545f5d, type: 3}
    - {fileID: -2752593092480351204, guid: 701a64fedf4c8c146a813bb835545f5d, type: 3}
    - {fileID: -625356339851083396, guid: 701a64fedf4c8c146a813bb835545f5d, type: 3}
    - {fileID: 775387156169236004, guid: 701a64fedf4c8c146a813bb835545f5d, type: 3}
    - {fileID: 1320002936175618831, guid: 701a64fedf4c8c146a813bb835545f5d, type: 3}
    - {fileID: -2436334255158986032, guid: 701a64fedf4c8c146a813bb835545f5d, type: 3}
    - {fileID: 8152840121169284116, guid: 701a64fedf4c8c146a813bb835545f5d, type: 3}
    - {fileID: 9036832362563248495, guid: 701a64fedf4c8c146a813bb835545f5d, type: 3}
    - {fileID: -2402972797652147045, guid: 701a64fedf4c8c146a813bb835545f5d, type: 3}
    - {fileID: -3877935415368287118, guid: 701a64fedf4c8c146a813bb835545f5d, type: 3}
    - {fileID: 5267262029791307153, guid: 701a64fedf4c8c146a813bb835545f5d, type: 3}
    - {fileID: 6255432424223785147, guid: 701a64fedf4c8c146a813bb835545f5d, type: 3}
    - {fileID: -3495303011756134686, guid: 701a64fedf4c8c146a813bb835545f5d, type: 3}
    - {fileID: 6413959586835946185, guid: 701a64fedf4c8c146a813bb835545f5d, type: 3}
    - {fileID: 6344617282962182974, guid: 701a64fedf4c8c146a813bb835545f5d, type: 3}
    - {fileID: 7280836111670739208, guid: 701a64fedf4c8c146a813bb835545f5d, type: 3}
    - {fileID: 8853755067739867087, guid: 701a64fedf4c8c146a813bb835545f5d, type: 3}
    - {fileID: -8712927495414851050, guid: 701a64fedf4c8c146a813bb835545f5d, type: 3}
    - {fileID: 3002838779231372501, guid: 701a64fedf4c8c146a813bb835545f5d, type: 3}
    - {fileID: 6951273122537960769, guid: 701a64fedf4c8c146a813bb835545f5d, type: 3}
    - {fileID: 7314858702707941015, guid: 701a64fedf4c8c146a813bb835545f5d, type: 3}
    - {fileID: -581953000134472950, guid: 701a64fedf4c8c146a813bb835545f5d, type: 3}
    - {fileID: 4463743660205698430, guid: 701a64fedf4c8c146a813bb835545f5d, type: 3}
    - {fileID: -5026162614823708434, guid: 701a64fedf4c8c146a813bb835545f5d, type: 3}
    - {fileID: 7211250393089936162, guid: 701a64fedf4c8c146a813bb835545f5d, type: 3}
    - {fileID: 2196582505106899357, guid: 701a64fedf4c8c146a813bb835545f5d, type: 3}
    - {fileID: 5146825186311955845, guid: 701a64fedf4c8c146a813bb835545f5d, type: 3}
    - {fileID: -8014847870481163030, guid: 701a64fedf4c8c146a813bb835545f5d, type: 3}
    - {fileID: 5133968204822818213, guid: 701a64fedf4c8c146a813bb835545f5d, type: 3}
    - {fileID: -4302015522822413232, guid: 701a64fedf4c8c146a813bb835545f5d, type: 3}
    - {fileID: -8938288144476853292, guid: 701a64fedf4c8c146a813bb835545f5d, type: 3}
    - {fileID: -8824636863799581502, guid: 701a64fedf4c8c146a813bb835545f5d, type: 3}
    - {fileID: -7779427700033496155, guid: 701a64fedf4c8c146a813bb835545f5d, type: 3}
    - {fileID: 4217503324867071234, guid: 701a64fedf4c8c146a813bb835545f5d, type: 3}
    - {fileID: 3519666836821608514, guid: 701a64fedf4c8c146a813bb835545f5d, type: 3}
    - {fileID: -8870313251716239253, guid: 701a64fedf4c8c146a813bb835545f5d, type: 3}
    - {fileID: 5736239151936116451, guid: 701a64fedf4c8c146a813bb835545f5d, type: 3}
    - {fileID: 2033125049655388251, guid: 701a64fedf4c8c146a813bb835545f5d, type: 3}
    - {fileID: 1441660932312829258, guid: 701a64fedf4c8c146a813bb835545f5d, type: 3}
    - {fileID: -758807477636124456, guid: 701a64fedf4c8c146a813bb835545f5d, type: 3}
    - {fileID: -5582624316916534274, guid: 701a64fedf4c8c146a813bb835545f5d, type: 3}
    - {fileID: -5714499796589647516, guid: 701a64fedf4c8c146a813bb835545f5d, type: 3}
    - {fileID: -150424870180096568, guid: 701a64fedf4c8c146a813bb835545f5d, type: 3}
    - {fileID: 8401221093333267842, guid: 701a64fedf4c8c146a813bb835545f5d, type: 3}
    - {fileID: 5810231308908570376, guid: 701a64fedf4c8c146a813bb835545f5d, type: 3}
    - {fileID: -2762071783020211222, guid: 701a64fedf4c8c146a813bb835545f5d, type: 3}
    - {fileID: -3083131687873872864, guid: 701a64fedf4c8c146a813bb835545f5d, type: 3}
    - {fileID: 6395265114279166437, guid: 701a64fedf4c8c146a813bb835545f5d, type: 3}
    - {fileID: 1815149836726880720, guid: 701a64fedf4c8c146a813bb835545f5d, type: 3}
  m_AnimationClipSettings:
    serializedVersion: 2
    m_AdditiveReferencePoseClip: {fileID: 0}
    m_AdditiveReferencePoseTime: 0
    m_StartTime: 0
    m_StopTime: 4.666667
    m_OrientationOffsetY: 0
    m_Level: 0
    m_CycleOffset: 0
    m_HasAdditiveReferencePose: 0
    m_LoopTime: 1
    m_LoopBlend: 0
    m_LoopBlendOrientation: 0
    m_LoopBlendPositionY: 0
    m_LoopBlendPositionXZ: 0
    m_KeepOriginalOrientation: 0
    m_KeepOriginalPositionY: 1
    m_KeepOriginalPositionXZ: 0
    m_HeightFromFeet: 0
    m_Mirror: 0
  m_EditorCurves: []
  m_EulerEditorCurves: []
  m_HasGenericRootTransform: 0
  m_HasMotionFloatCurves: 0
  m_Events: []
